^C:\USERS\USER\DOCUMENTS\VISUAL STUDIO 2013\PROJECTS\ITAIGELLERHW1\ITAIGELLERHW1\MAIN.CPP
/c /ZI /nologo /W3 /WX- /sdl /Od /Oy- /D _MBCS /Gm /EHsc /RTC1 /MDd /GS /fp:precise /Zc:wchar_t /Zc:forScope /Fo"DEBUG\\" /Fd"DEBUG\VC120.PDB" /Gd /TP /analyze- C:\USERS\USER\DOCUMENTS\VISUAL STUDIO 2013\PROJECTS\ITAIGELLERHW1\ITAIGELLERHW1\MAIN.CPP
^C:\USERS\USER\DOCUMENTS\VISUAL STUDIO 2013\PROJECTS\ITAIGELLERHW1\ITAIGELLERHW1\QUEUE.CPP
/c /ZI /nologo /W3 /WX- /sdl /Od /Oy- /D _MBCS /Gm /EHsc /RTC1 /MDd /GS /fp:precise /Zc:wchar_t /Zc:forScope /Fo"DEBUG\\" /Fd"DEBUG\VC120.PDB" /Gd /TP /analyze- C:\USERS\USER\DOCUMENTS\VISUAL STUDIO 2013\PROJECTS\ITAIGELLERHW1\ITAIGELLERHW1\QUEUE.CPP
^C:\USERS\USER\DOCUMENTS\VISUAL STUDIO 2013\PROJECTS\ITAIGELLERHW1\ITAIGELLERHW1\LINKEDLIST.CPP
/c /ZI /nologo /W3 /WX- /sdl /Od /Oy- /D _MBCS /Gm /EHsc /RTC1 /MDd /GS /fp:precise /Zc:wchar_t /Zc:forScope /Fo"DEBUG\\" /Fd"DEBUG\VC120.PDB" /Gd /TP /analyze- C:\USERS\USER\DOCUMENTS\VISUAL STUDIO 2013\PROJECTS\ITAIGELLERHW1\ITAIGELLERHW1\LINKEDLIST.CPP
^C:\USERS\USER\DOCUMENTS\VISUAL STUDIO 2013\PROJECTS\ITAIGELLERHW1\ITAIGELLERHW1\STACK.CPP
/c /ZI /nologo /W3 /WX- /sdl /Od /Oy- /D _MBCS /Gm /EHsc /RTC1 /MDd /GS /fp:precise /Zc:wchar_t /Zc:forScope /Fo"DEBUG\\" /Fd"DEBUG\VC120.PDB" /Gd /TP /analyze- C:\USERS\USER\DOCUMENTS\VISUAL STUDIO 2013\PROJECTS\ITAIGELLERHW1\ITAIGELLERHW1\STACK.CPP
^C:\USERS\USER\DOCUMENTS\VISUAL STUDIO 2013\PROJECTS\ITAIGELLERHW1\ITAIGELLERHW1\UTILS.CPP
/c /ZI /nologo /W3 /WX- /sdl /Od /Oy- /D _MBCS /Gm /EHsc /RTC1 /MDd /GS /fp:precise /Zc:wchar_t /Zc:forScope /Fo"DEBUG\\" /Fd"DEBUG\VC120.PDB" /Gd /TP /analyze- C:\USERS\USER\DOCUMENTS\VISUAL STUDIO 2013\PROJECTS\ITAIGELLERHW1\ITAIGELLERHW1\UTILS.CPP
^C:\USERS\USER\DOCUMENTS\MAGSHIMIM\C++\ITAIGELLERHW1\ITAIGELLERHW1\ITAIGELLERHW1\LINKEDLIST.CPP
/c /ZI /nologo /W3 /WX- /sdl /Od /Oy- /D _MBCS /Gm /EHsc /RTC1 /MDd /GS /fp:precise /Zc:wchar_t /Zc:forScope /Fo"DEBUG\\" /Fd"DEBUG\VC120.PDB" /Gd /TP /analyze- C:\USERS\USER\DOCUMENTS\MAGSHIMIM\C++\ITAIGELLERHW1\ITAIGELLERHW1\ITAIGELLERHW1\LINKEDLIST.CPP
^C:\USERS\USER\DOCUMENTS\MAGSHIMIM\C++\ITAIGELLERHW1\ITAIGELLERHW1\ITAIGELLERHW1\MAIN.CPP
/c /ZI /nologo /W3 /WX- /sdl /Od /Oy- /D _MBCS /Gm /EHsc /RTC1 /MDd /GS /fp:precise /Zc:wchar_t /Zc:forScope /Fo"DEBUG\\" /Fd"DEBUG\VC120.PDB" /Gd /TP /analyze- C:\USERS\USER\DOCUMENTS\MAGSHIMIM\C++\ITAIGELLERHW1\ITAIGELLERHW1\ITAIGELLERHW1\MAIN.CPP
^C:\USERS\USER\DOCUMENTS\MAGSHIMIM\C++\ITAIGELLERHW1\ITAIGELLERHW1\ITAIGELLERHW1\QUEUE.CPP
/c /ZI /nologo /W3 /WX- /sdl /Od /Oy- /D _MBCS /Gm /EHsc /RTC1 /MDd /GS /fp:precise /Zc:wchar_t /Zc:forScope /Fo"DEBUG\\" /Fd"DEBUG\VC120.PDB" /Gd /TP /analyze- C:\USERS\USER\DOCUMENTS\MAGSHIMIM\C++\ITAIGELLERHW1\ITAIGELLERHW1\ITAIGELLERHW1\QUEUE.CPP
^C:\USERS\USER\DOCUMENTS\MAGSHIMIM\C++\ITAIGELLERHW1\ITAIGELLERHW1\ITAIGELLERHW1\STACK.CPP
/c /ZI /nologo /W3 /WX- /sdl /Od /Oy- /D _MBCS /Gm /EHsc /RTC1 /MDd /GS /fp:precise /Zc:wchar_t /Zc:forScope /Fo"DEBUG\\" /Fd"DEBUG\VC120.PDB" /Gd /TP /analyze- C:\USERS\USER\DOCUMENTS\MAGSHIMIM\C++\ITAIGELLERHW1\ITAIGELLERHW1\ITAIGELLERHW1\STACK.CPP
^C:\USERS\USER\DOCUMENTS\MAGSHIMIM\C++\ITAIGELLERHW1\ITAIGELLERHW1\ITAIGELLERHW1\UTILS.CPP
/c /ZI /nologo /W3 /WX- /sdl /Od /Oy- /D _MBCS /Gm /EHsc /RTC1 /MDd /GS /fp:precise /Zc:wchar_t /Zc:forScope /Fo"DEBUG\\" /Fd"DEBUG\VC120.PDB" /Gd /TP /analyze- C:\USERS\USER\DOCUMENTS\MAGSHIMIM\C++\ITAIGELLERHW1\ITAIGELLERHW1\ITAIGELLERHW1\UTILS.CPP
